%YAML 1.1
%TAG !u! tag:unity3d.com,2011:
--- !u!1045 &1
EditorBuildSettings:
  m_ObjectHideFlags: 0
  serializedVersion: 2
  m_Scenes:
  - enabled: 1
    path: Assets/Scenes/SampleScene.unity
    guid: 9fc0d4010bbf28b4594072e72b8655ab
  m_configObjects:
    Unity.XR.Oculus.Settings: {fileID: 11400000, guid: 86c6c99e3038ee14a99732e070fc3975, type: 2}
    com.unity.input.settings: {fileID: 11400000, guid: 800f7226d1299434e9f4c95341185e58, type: 2}
    com.unity.xr.management.loader_settings: {fileID: 11400000, guid: 30ad64f43b409ef4a9eb79aac210ff7e, type: 2}
    com.unity.xr.openxr.settings4: {fileID: 11400000, guid: 9281f9c399027844ba3d024fc6862208, type: 2}
